[1600945118.663][INFO]: Starting ChromeDriver 85.0.4183.87 (cd6713ebf92fa1cacc0f1a598df280093af0c5d7-refs/branch-heads/4183@{#1689}) on port 26497
[1600945118.663][INFO]: Please see https://chromedriver.chromium.org/security-considerations for suggestions on keeping ChromeDriver safe.
[1600945119.300][INFO]: [21eee89497bab82e1641be5c60aa1d4f] COMMAND InitSession {
   "capabilities": {
      "firstMatch": [ {
         "acceptInsecureCerts": true,
         "browserName": "chrome",
         "goog:chromeOptions": {
            "args": [ "--proxy-bypass-list=\u003C-loopback>", "--disable-dev-shm-usage" ],
            "excludeSwitches": [ "enable-automation", "load-extension" ],
            "extensions": [  ],
            "prefs": {
               "credentials_enable_service": false,
               "download.default_directory": "C:\\Users\\Nikisha\\IdeaProjects\\YaMa\\build\\downloads\\1600945118172_16096_1",
               "plugins.always_open_pdf_externally": true
            }
         },
         "pageLoadStrategy": "normal"
      } ]
   },
   "desiredCapabilities": {
      "acceptInsecureCerts": true,
      "acceptSslCerts": true,
      "browserName": "chrome",
      "goog:chromeOptions": {
         "args": [ "--proxy-bypass-list=\u003C-loopback>", "--disable-dev-shm-usage" ],
         "excludeSwitches": [ "enable-automation", "load-extension" ],
         "extensions": [  ],
         "prefs": {
            "credentials_enable_service": false,
            "download.default_directory": "C:\\Users\\Nikisha\\IdeaProjects\\YaMa\\build\\downloads\\1600945118172_16096_1",
            "plugins.always_open_pdf_externally": true
         }
      },
      "handlesAlerts": true,
      "javascriptEnabled": true,
      "pageLoadStrategy": "normal",
      "takesScreenshot": true
   }
}
[1600945119.304][INFO]: Populating Preferences file: {
   "alternate_error_pages": {
      "enabled": false
   },
   "autofill": {
      "enabled": false
   },
   "browser": {
      "check_default_browser": false
   },
   "credentials_enable_service": false,
   "distribution": {
      "import_bookmarks": false,
      "import_history": false,
      "import_search_engine": false,
      "make_chrome_default_for_user": false,
      "skip_first_run_ui": true
   },
   "dns_prefetching": {
      "enabled": false
   },
   "download": {
      "default_directory": "C:\\Users\\Nikisha\\IdeaProjects\\YaMa\\build\\downloads\\1600945118172_16096_1"
   },
   "plugins": {
      "always_open_pdf_externally": true
   },
   "profile": {
      "content_settings": {
         "pattern_pairs": {
            "https://*,*": {
               "media-stream": {
                  "audio": "Default",
                  "video": "Default"
               }
            }
         }
      },
      "default_content_setting_values": {
         "geolocation": 1
      },
      "default_content_settings": {
         "geolocation": 1,
         "mouselock": 1,
         "notifications": 1,
         "popups": 1,
         "ppapi-broker": 1
      },
      "password_manager_enabled": false
   },
   "safebrowsing": {
      "enabled": false
   },
   "search": {
      "suggest_enabled": false
   },
   "translate": {
      "enabled": false
   }
}
[1600945119.304][INFO]: Populating Local State file: {
   "background_mode": {
      "enabled": false
   },
   "ssl": {
      "rev_checking": {
         "enabled": false
      }
   }
}
[1600945119.305][INFO]: Launching chrome: "C:\Program Files (x86)\Google\Chrome\Application\chrome.exe" --disable-background-networking --disable-client-side-phishing-detection --disable-default-apps --disable-dev-shm-usage --disable-hang-monitor --disable-popup-blocking --disable-prompt-on-repost --disable-sync --enable-blink-features=ShadowDOMV0 --enable-logging --ignore-certificate-errors --log-level=0 --no-first-run --password-store=basic --proxy-bypass-list=<-loopback> --remote-debugging-port=0 --test-type=webdriver --use-mock-keychain --user-data-dir="C:\Users\Nikisha\AppData\Local\Temp\scoped_dir11232_1491789739" data:,
[1600945119.830][INFO]: resolved localhost to ["::1","127.0.0.1"]
[1600945121.850][INFO]: resolved localhost to ["::1","127.0.0.1"]
[1600945123.895][INFO]: [21eee89497bab82e1641be5c60aa1d4f] RESPONSE InitSession {
   "capabilities": {
      "acceptInsecureCerts": true,
      "browserName": "chrome",
      "browserVersion": "85.0.4183.121",
      "chrome": {
         "chromedriverVersion": "85.0.4183.87 (cd6713ebf92fa1cacc0f1a598df280093af0c5d7-refs/branch-heads/4183@{#1689})",
         "userDataDir": "C:\\Users\\Nikisha\\AppData\\Local\\Temp\\scoped_dir11232_1491789739"
      },
      "goog:chromeOptions": {
         "debuggerAddress": "localhost:53390"
      },
      "networkConnectionEnabled": false,
      "pageLoadStrategy": "normal",
      "platformName": "windows",
      "proxy": {

      },
      "setWindowRect": true,
      "strictFileInteractability": false,
      "timeouts": {
         "implicit": 0,
         "pageLoad": 300000,
         "script": 30000
      },
      "unhandledPromptBehavior": "dismiss and notify",
      "webauthn:virtualAuthenticators": true
   },
   "sessionId": "21eee89497bab82e1641be5c60aa1d4f"
}
[1600945123.927][INFO]: [21eee89497bab82e1641be5c60aa1d4f] COMMAND SetWindowRect {
   "height": 768,
   "width": 1366
}
[1600945123.927][INFO]: Waiting for pending navigations...
[1600945123.929][INFO]: Done waiting for pending navigations. Status: ok
[1600945124.048][INFO]: Waiting for pending navigations...
[1600945124.049][INFO]: Done waiting for pending navigations. Status: ok
[1600945124.049][INFO]: [21eee89497bab82e1641be5c60aa1d4f] RESPONSE SetWindowRect {
   "height": 768,
   "width": 1366,
   "x": 10,
   "y": 10
}
[1600945124.054][INFO]: [21eee89497bab82e1641be5c60aa1d4f] COMMAND Navigate {
   "url": "https://yandex.ru/"
}
[1600945124.054][INFO]: Waiting for pending navigations...
[1600945124.055][INFO]: Done waiting for pending navigations. Status: ok
[1600945124.421][INFO]: Waiting for pending navigations...
[1600945125.215][INFO]: Done waiting for pending navigations. Status: ok
[1600945125.216][INFO]: [21eee89497bab82e1641be5c60aa1d4f] RESPONSE Navigate
[1600945125.259][INFO]: [21eee89497bab82e1641be5c60aa1d4f] COMMAND FindElement {
   "using": "xpath",
   "value": "//input[@aria-label=\"Запрос\"]"
}
[1600945125.259][INFO]: Waiting for pending navigations...
[1600945125.260][INFO]: Done waiting for pending navigations. Status: ok
[1600945125.272][INFO]: Waiting for pending navigations...
[1600945125.273][INFO]: Done waiting for pending navigations. Status: ok
[1600945125.273][INFO]: [21eee89497bab82e1641be5c60aa1d4f] RESPONSE FindElement {
   "element-6066-11e4-a52e-4f735466cecf": "6b2ce0ac-b0f0-4e7d-a971-f1e5ca2e8681"
}
[1600945125.291][INFO]: [21eee89497bab82e1641be5c60aa1d4f] COMMAND ExecuteScript {
   "args": [ {
      "element-6066-11e4-a52e-4f735466cecf": "6b2ce0ac-b0f0-4e7d-a971-f1e5ca2e8681"
   } ],
   "script": "return (function(){return function(){var k=this;function l(a){return void 0!==a}function m(a){return\"string\"==typeof a}function aa(a,b){a=a.split(\".\");var c=k;a[0]in c||!c.execScript||c.execScript(..."
}
[1600945125.291][INFO]: Waiting for pending navigations...
[1600945125.486][INFO]: Done waiting for pending navigations. Status: ok
[1600945125.519][INFO]: Waiting for pending navigations...
[1600945125.534][INFO]: Done waiting for pending navigations. Status: ok
[1600945125.534][INFO]: [21eee89497bab82e1641be5c60aa1d4f] RESPONSE ExecuteScript true
[1600945125.538][INFO]: [21eee89497bab82e1641be5c60aa1d4f] COMMAND ClearElement {
   "id": "6b2ce0ac-b0f0-4e7d-a971-f1e5ca2e8681"
}
[1600945125.538][INFO]: Waiting for pending navigations...
[1600945125.614][INFO]: Done waiting for pending navigations. Status: ok
[1600945125.697][INFO]: 
	=== NOTE: ===
	The Clear command in ChromeDriver 2.43 and above
	has been updated to conform to the current standard,
	including raising blur event after clearing.

[1600945125.709][INFO]: Waiting for pending navigations...
[1600945125.715][INFO]: Done waiting for pending navigations. Status: ok
[1600945125.715][INFO]: [21eee89497bab82e1641be5c60aa1d4f] RESPONSE ClearElement
[1600945125.720][INFO]: [21eee89497bab82e1641be5c60aa1d4f] COMMAND TypeElement {
   "id": "6b2ce0ac-b0f0-4e7d-a971-f1e5ca2e8681",
   "text": "market yandex",
   "value": [ "m", "a", "r", "k", "e", "t", " ", "y", "a", "n", "d", "e", "x" ]
}
[1600945125.720][INFO]: Waiting for pending navigations...
[1600945125.723][INFO]: Done waiting for pending navigations. Status: ok
[1600945125.766][INFO]: Waiting for pending navigations...
[1600945125.779][INFO]: Done waiting for pending navigations. Status: ok
[1600945125.779][INFO]: [21eee89497bab82e1641be5c60aa1d4f] RESPONSE TypeElement
[1600945125.783][INFO]: [21eee89497bab82e1641be5c60aa1d4f] COMMAND FindElement {
   "using": "xpath",
   "value": "//input[@aria-label=\"Запрос\"]"
}
[1600945125.783][INFO]: Waiting for pending navigations...
[1600945125.783][INFO]: Done waiting for pending navigations. Status: ok
[1600945125.787][INFO]: Waiting for pending navigations...
[1600945125.788][INFO]: Done waiting for pending navigations. Status: ok
[1600945125.788][INFO]: [21eee89497bab82e1641be5c60aa1d4f] RESPONSE FindElement {
   "element-6066-11e4-a52e-4f735466cecf": "6b2ce0ac-b0f0-4e7d-a971-f1e5ca2e8681"
}
[1600945125.795][INFO]: [21eee89497bab82e1641be5c60aa1d4f] COMMAND ExecuteScript {
   "args": [ {
      "element-6066-11e4-a52e-4f735466cecf": "6b2ce0ac-b0f0-4e7d-a971-f1e5ca2e8681"
   } ],
   "script": "return (function(){return function(){var k=this;function l(a){return void 0!==a}function m(a){return\"string\"==typeof a}function aa(a,b){a=a.split(\".\");var c=k;a[0]in c||!c.execScript||c.execScript(..."
}
[1600945125.795][INFO]: Waiting for pending navigations...
[1600945125.797][INFO]: Done waiting for pending navigations. Status: ok
[1600945125.804][INFO]: Waiting for pending navigations...
[1600945125.804][INFO]: Done waiting for pending navigations. Status: ok
[1600945125.804][INFO]: [21eee89497bab82e1641be5c60aa1d4f] RESPONSE ExecuteScript true
[1600945125.809][INFO]: [21eee89497bab82e1641be5c60aa1d4f] COMMAND TypeElement {
   "id": "6b2ce0ac-b0f0-4e7d-a971-f1e5ca2e8681",
   "text": "",
   "value": [ "" ]
}
[1600945125.809][INFO]: Waiting for pending navigations...
[1600945125.809][INFO]: Done waiting for pending navigations. Status: ok
[1600945125.821][INFO]: Waiting for pending navigations...
[1600945125.822][INFO]: Done waiting for pending navigations. Status: ok
[1600945125.822][INFO]: [21eee89497bab82e1641be5c60aa1d4f] RESPONSE TypeElement
[1600945125.826][INFO]: [21eee89497bab82e1641be5c60aa1d4f] COMMAND FindElement {
   "using": "xpath",
   "value": "//div[text()=' — выбор товаров и места их покупки']"
}
[1600945125.826][INFO]: Waiting for pending navigations...
[1600945126.522][INFO]: Done waiting for pending navigations. Status: ok
[1600945126.531][INFO]: Waiting for pending navigations...
[1600945126.540][INFO]: Done waiting for pending navigations. Status: ok
[1600945126.540][INFO]: [21eee89497bab82e1641be5c60aa1d4f] RESPONSE FindElement {
   "element-6066-11e4-a52e-4f735466cecf": "9c1a2226-7658-493b-95e1-627c5a25f574"
}
[1600945126.547][INFO]: [21eee89497bab82e1641be5c60aa1d4f] COMMAND ExecuteScript {
   "args": [ {
      "element-6066-11e4-a52e-4f735466cecf": "9c1a2226-7658-493b-95e1-627c5a25f574"
   } ],
   "script": "return (function(){return function(){var k=this;function l(a){return void 0!==a}function m(a){return\"string\"==typeof a}function aa(a,b){a=a.split(\".\");var c=k;a[0]in c||!c.execScript||c.execScript(..."
}
[1600945126.547][INFO]: Waiting for pending navigations...
[1600945126.548][INFO]: Done waiting for pending navigations. Status: ok
[1600945126.555][INFO]: Waiting for pending navigations...
[1600945126.556][INFO]: Done waiting for pending navigations. Status: ok
[1600945126.556][INFO]: [21eee89497bab82e1641be5c60aa1d4f] RESPONSE ExecuteScript true
[1600945126.559][INFO]: [21eee89497bab82e1641be5c60aa1d4f] COMMAND ClickElement {
   "id": "9c1a2226-7658-493b-95e1-627c5a25f574"
}
[1600945126.559][INFO]: Waiting for pending navigations...
[1600945126.559][INFO]: Done waiting for pending navigations. Status: ok
[1600945126.617][INFO]: Waiting for pending navigations...
[1600945126.627][INFO]: Done waiting for pending navigations. Status: ok
[1600945126.627][INFO]: [21eee89497bab82e1641be5c60aa1d4f] RESPONSE ClickElement
[1600945126.634][INFO]: [21eee89497bab82e1641be5c60aa1d4f] COMMAND GetWindows {

}
[1600945126.636][INFO]: [21eee89497bab82e1641be5c60aa1d4f] RESPONSE GetWindows [ "CDwindow-375477816F7AEFF9D7DF6B2C153F8617", "CDwindow-DE76B8092459772BE82EAE35842F6813" ]
[1600945126.643][INFO]: [21eee89497bab82e1641be5c60aa1d4f] COMMAND SwitchToWindow {
   "handle": "CDwindow-DE76B8092459772BE82EAE35842F6813"
}
[1600945126.647][INFO]: [21eee89497bab82e1641be5c60aa1d4f] RESPONSE SwitchToWindow
[1600945126.650][INFO]: [21eee89497bab82e1641be5c60aa1d4f] COMMAND FindElement {
   "using": "xpath",
   "value": "//button[./span[text()='Да, спасибо']]"
}
[1600945126.651][INFO]: resolved localhost to ["::1","127.0.0.1"]
[1600945128.695][INFO]: Waiting for pending navigations...
[1600945128.700][INFO]: Done waiting for pending navigations. Status: ok
[1600945128.712][INFO]: Waiting for pending navigations...
[1600945128.713][INFO]: Done waiting for pending navigations. Status: ok
[1600945128.713][INFO]: [21eee89497bab82e1641be5c60aa1d4f] RESPONSE FindElement {
   "element-6066-11e4-a52e-4f735466cecf": "34579412-6b52-4dad-b136-93561b4142e2"
}
[1600945128.721][INFO]: [21eee89497bab82e1641be5c60aa1d4f] COMMAND ExecuteScript {
   "args": [ {
      "element-6066-11e4-a52e-4f735466cecf": "34579412-6b52-4dad-b136-93561b4142e2"
   } ],
   "script": "return (function(){return function(){var k=this;function l(a){return void 0!==a}function m(a){return\"string\"==typeof a}function aa(a,b){a=a.split(\".\");var c=k;a[0]in c||!c.execScript||c.execScript(..."
}
[1600945128.721][INFO]: Waiting for pending navigations...
[1600945128.722][INFO]: Done waiting for pending navigations. Status: ok
[1600945128.734][INFO]: Waiting for pending navigations...
[1600945128.736][INFO]: Done waiting for pending navigations. Status: ok
[1600945128.736][INFO]: [21eee89497bab82e1641be5c60aa1d4f] RESPONSE ExecuteScript true
[1600945128.739][INFO]: [21eee89497bab82e1641be5c60aa1d4f] COMMAND ClickElement {
   "id": "34579412-6b52-4dad-b136-93561b4142e2"
}
[1600945128.739][INFO]: Waiting for pending navigations...
[1600945128.739][INFO]: Done waiting for pending navigations. Status: ok
[1600945128.801][INFO]: Waiting for pending navigations...
[1600945128.810][INFO]: Done waiting for pending navigations. Status: ok
[1600945128.810][INFO]: [21eee89497bab82e1641be5c60aa1d4f] RESPONSE ClickElement
[1600945128.814][INFO]: [21eee89497bab82e1641be5c60aa1d4f] COMMAND FindElement {
   "using": "xpath",
   "value": "//input[@aria-labelledby=\"header-search header-search-label\"]"
}
[1600945128.814][INFO]: Waiting for pending navigations...
[1600945128.814][INFO]: Done waiting for pending navigations. Status: ok
[1600945128.824][INFO]: Waiting for pending navigations...
[1600945128.827][INFO]: Done waiting for pending navigations. Status: ok
[1600945128.827][INFO]: [21eee89497bab82e1641be5c60aa1d4f] RESPONSE FindElement {
   "element-6066-11e4-a52e-4f735466cecf": "64c0b822-b1ed-419e-94d2-d82313d4fa76"
}
[1600945128.834][INFO]: [21eee89497bab82e1641be5c60aa1d4f] COMMAND ExecuteScript {
   "args": [ {
      "element-6066-11e4-a52e-4f735466cecf": "64c0b822-b1ed-419e-94d2-d82313d4fa76"
   } ],
   "script": "return (function(){return function(){var k=this;function l(a){return void 0!==a}function m(a){return\"string\"==typeof a}function aa(a,b){a=a.split(\".\");var c=k;a[0]in c||!c.execScript||c.execScript(..."
}
[1600945128.834][INFO]: Waiting for pending navigations...
[1600945128.834][INFO]: Done waiting for pending navigations. Status: ok
[1600945128.845][INFO]: Waiting for pending navigations...
[1600945128.846][INFO]: Done waiting for pending navigations. Status: ok
[1600945128.846][INFO]: [21eee89497bab82e1641be5c60aa1d4f] RESPONSE ExecuteScript true
[1600945128.849][INFO]: [21eee89497bab82e1641be5c60aa1d4f] COMMAND ClearElement {
   "id": "64c0b822-b1ed-419e-94d2-d82313d4fa76"
}
[1600945128.849][INFO]: Waiting for pending navigations...
[1600945128.849][INFO]: Done waiting for pending navigations. Status: ok
[1600945128.877][INFO]: Waiting for pending navigations...
[1600945128.877][INFO]: Done waiting for pending navigations. Status: ok
[1600945128.877][INFO]: [21eee89497bab82e1641be5c60aa1d4f] RESPONSE ClearElement
[1600945128.881][INFO]: [21eee89497bab82e1641be5c60aa1d4f] COMMAND TypeElement {
   "id": "64c0b822-b1ed-419e-94d2-d82313d4fa76",
   "text": "Xiaomi Redmi Power Bank Fast Charge 20000",
   "value": [ "X", "i", "a", "o", "m", "i", " ", "R", "e", "d", "m", "i", " ", "P", "o", "w", "e", "r", " ", "..." ]
}
[1600945128.881][INFO]: Waiting for pending navigations...
[1600945128.881][INFO]: Done waiting for pending navigations. Status: ok
[1600945129.205][INFO]: Waiting for pending navigations...
[1600945129.214][INFO]: Done waiting for pending navigations. Status: ok
[1600945129.214][INFO]: [21eee89497bab82e1641be5c60aa1d4f] RESPONSE TypeElement
[1600945129.218][INFO]: [21eee89497bab82e1641be5c60aa1d4f] COMMAND FindElement {
   "using": "xpath",
   "value": "//input[@aria-labelledby=\"header-search header-search-label\"]"
}
[1600945129.218][INFO]: Waiting for pending navigations...
[1600945129.245][INFO]: Done waiting for pending navigations. Status: ok
[1600945129.252][INFO]: Waiting for pending navigations...
[1600945129.253][INFO]: Done waiting for pending navigations. Status: ok
[1600945129.253][INFO]: [21eee89497bab82e1641be5c60aa1d4f] RESPONSE FindElement {
   "element-6066-11e4-a52e-4f735466cecf": "64c0b822-b1ed-419e-94d2-d82313d4fa76"
}
[1600945129.262][INFO]: [21eee89497bab82e1641be5c60aa1d4f] COMMAND ExecuteScript {
   "args": [ {
      "element-6066-11e4-a52e-4f735466cecf": "64c0b822-b1ed-419e-94d2-d82313d4fa76"
   } ],
   "script": "return (function(){return function(){var k=this;function l(a){return void 0!==a}function m(a){return\"string\"==typeof a}function aa(a,b){a=a.split(\".\");var c=k;a[0]in c||!c.execScript||c.execScript(..."
}
[1600945129.262][INFO]: Waiting for pending navigations...
[1600945129.265][INFO]: Done waiting for pending navigations. Status: ok
[1600945129.270][INFO]: Waiting for pending navigations...
[1600945129.271][INFO]: Done waiting for pending navigations. Status: ok
[1600945129.271][INFO]: [21eee89497bab82e1641be5c60aa1d4f] RESPONSE ExecuteScript true
[1600945129.275][INFO]: [21eee89497bab82e1641be5c60aa1d4f] COMMAND TypeElement {
   "id": "64c0b822-b1ed-419e-94d2-d82313d4fa76",
   "text": "",
   "value": [ "" ]
}
[1600945129.275][INFO]: Waiting for pending navigations...
[1600945129.275][INFO]: Done waiting for pending navigations. Status: ok
[1600945129.296][INFO]: Waiting for pending navigations...
[1600945129.297][INFO]: Done waiting for pending navigations. Status: ok
[1600945129.297][INFO]: [21eee89497bab82e1641be5c60aa1d4f] RESPONSE TypeElement
[1600945129.300][INFO]: [21eee89497bab82e1641be5c60aa1d4f] COMMAND FindElement {
   "using": "xpath",
   "value": "//input[@id='glpricefrom']"
}
[1600945129.300][INFO]: Waiting for pending navigations...
[1600945129.302][INFO]: Done waiting for pending navigations. Status: ok
[1600945129.318][INFO]: Waiting for pending navigations...
[1600945133.009][INFO]: Done waiting for pending navigations. Status: ok
[1600945133.009][INFO]: [21eee89497bab82e1641be5c60aa1d4f] RESPONSE FindElement ERROR no such element: Unable to locate element: {"method":"xpath","selector":"//input[@id='glpricefrom']"}
  (Session info: chrome=85.0.4183.121)
[1600945133.236][INFO]: [21eee89497bab82e1641be5c60aa1d4f] COMMAND FindElement {
   "using": "xpath",
   "value": "//input[@id='glpricefrom']"
}
[1600945133.237][INFO]: Waiting for pending navigations...
[1600945133.237][INFO]: Done waiting for pending navigations. Status: ok
[1600945133.241][INFO]: Waiting for pending navigations...
[1600945133.242][INFO]: Done waiting for pending navigations. Status: ok
[1600945133.242][INFO]: [21eee89497bab82e1641be5c60aa1d4f] RESPONSE FindElement {
   "element-6066-11e4-a52e-4f735466cecf": "51142996-3b78-4467-bb19-db312253b88d"
}
[1600945133.249][INFO]: [21eee89497bab82e1641be5c60aa1d4f] COMMAND ExecuteScript {
   "args": [ {
      "element-6066-11e4-a52e-4f735466cecf": "51142996-3b78-4467-bb19-db312253b88d"
   } ],
   "script": "return (function(){return function(){var k=this;function l(a){return void 0!==a}function m(a){return\"string\"==typeof a}function aa(a,b){a=a.split(\".\");var c=k;a[0]in c||!c.execScript||c.execScript(..."
}
[1600945133.249][INFO]: Waiting for pending navigations...
[1600945133.250][INFO]: Done waiting for pending navigations. Status: ok
[1600945133.259][INFO]: Waiting for pending navigations...
[1600945133.259][INFO]: Done waiting for pending navigations. Status: ok
[1600945133.260][INFO]: [21eee89497bab82e1641be5c60aa1d4f] RESPONSE ExecuteScript true
[1600945133.262][INFO]: [21eee89497bab82e1641be5c60aa1d4f] COMMAND ClearElement {
   "id": "51142996-3b78-4467-bb19-db312253b88d"
}
[1600945133.262][INFO]: Waiting for pending navigations...
[1600945133.263][INFO]: Done waiting for pending navigations. Status: ok
[1600945133.293][INFO]: Waiting for pending navigations...
[1600945133.293][INFO]: Done waiting for pending navigations. Status: ok
[1600945133.293][INFO]: [21eee89497bab82e1641be5c60aa1d4f] RESPONSE ClearElement
[1600945133.297][INFO]: [21eee89497bab82e1641be5c60aa1d4f] COMMAND TypeElement {
   "id": "51142996-3b78-4467-bb19-db312253b88d",
   "text": "1000",
   "value": [ "1", "0", "0", "0" ]
}
[1600945133.297][INFO]: Waiting for pending navigations...
[1600945133.297][INFO]: Done waiting for pending navigations. Status: ok
[1600945133.490][INFO]: Waiting for pending navigations...
[1600945133.534][INFO]: Done waiting for pending navigations. Status: ok
[1600945133.534][INFO]: [21eee89497bab82e1641be5c60aa1d4f] RESPONSE TypeElement
[1600945133.538][INFO]: [21eee89497bab82e1641be5c60aa1d4f] COMMAND FindElement {
   "using": "xpath",
   "value": "//input[@id='glpriceto']"
}
[1600945133.538][INFO]: Waiting for pending navigations...
[1600945133.557][INFO]: Done waiting for pending navigations. Status: ok
[1600945133.571][INFO]: Waiting for pending navigations...
[1600945133.575][INFO]: Done waiting for pending navigations. Status: ok
[1600945133.575][INFO]: [21eee89497bab82e1641be5c60aa1d4f] RESPONSE FindElement {
   "element-6066-11e4-a52e-4f735466cecf": "b36942a2-73fc-49bf-9e6d-85e265c2384f"
}
[1600945133.582][INFO]: [21eee89497bab82e1641be5c60aa1d4f] COMMAND ExecuteScript {
   "args": [ {
      "element-6066-11e4-a52e-4f735466cecf": "b36942a2-73fc-49bf-9e6d-85e265c2384f"
   } ],
   "script": "return (function(){return function(){var k=this;function l(a){return void 0!==a}function m(a){return\"string\"==typeof a}function aa(a,b){a=a.split(\".\");var c=k;a[0]in c||!c.execScript||c.execScript(..."
}
[1600945133.582][INFO]: Waiting for pending navigations...
[1600945133.584][INFO]: Done waiting for pending navigations. Status: ok
[1600945133.596][INFO]: Waiting for pending navigations...
[1600945133.597][INFO]: Done waiting for pending navigations. Status: ok
[1600945133.597][INFO]: [21eee89497bab82e1641be5c60aa1d4f] RESPONSE ExecuteScript true
[1600945133.601][INFO]: [21eee89497bab82e1641be5c60aa1d4f] COMMAND ClearElement {
   "id": "b36942a2-73fc-49bf-9e6d-85e265c2384f"
}
[1600945133.601][INFO]: Waiting for pending navigations...
[1600945133.602][INFO]: Done waiting for pending navigations. Status: ok
[1600945133.649][INFO]: Waiting for pending navigations...
[1600945133.651][INFO]: Done waiting for pending navigations. Status: ok
[1600945133.651][INFO]: [21eee89497bab82e1641be5c60aa1d4f] RESPONSE ClearElement
[1600945133.655][INFO]: [21eee89497bab82e1641be5c60aa1d4f] COMMAND TypeElement {
   "id": "b36942a2-73fc-49bf-9e6d-85e265c2384f",
   "text": "2000",
   "value": [ "2", "0", "0", "0" ]
}
[1600945133.655][INFO]: Waiting for pending navigations...
[1600945133.658][INFO]: Done waiting for pending navigations. Status: ok
[1600945133.824][INFO]: Waiting for pending navigations...
[1600945133.853][INFO]: Done waiting for pending navigations. Status: ok
[1600945133.853][INFO]: [21eee89497bab82e1641be5c60aa1d4f] RESPONSE TypeElement
[1600945133.857][INFO]: [21eee89497bab82e1641be5c60aa1d4f] COMMAND FindElement {
   "using": "xpath",
   "value": "//div[1]/h3/a/span[1]"
}
[1600945133.857][INFO]: Waiting for pending navigations...
[1600945133.860][INFO]: Done waiting for pending navigations. Status: ok
[1600945133.872][INFO]: Waiting for pending navigations...
[1600945133.875][INFO]: Done waiting for pending navigations. Status: ok
[1600945133.875][INFO]: [21eee89497bab82e1641be5c60aa1d4f] RESPONSE FindElement {
   "element-6066-11e4-a52e-4f735466cecf": "350c1612-7f1f-451f-aa87-db150bf3718c"
}
[1600945133.883][INFO]: [21eee89497bab82e1641be5c60aa1d4f] COMMAND ExecuteScript {
   "args": [ {
      "element-6066-11e4-a52e-4f735466cecf": "350c1612-7f1f-451f-aa87-db150bf3718c"
   } ],
   "script": "return (function(){return function(){var k=this;function l(a){return void 0!==a}function m(a){return\"string\"==typeof a}function aa(a,b){a=a.split(\".\");var c=k;a[0]in c||!c.execScript||c.execScript(..."
}
[1600945133.883][INFO]: Waiting for pending navigations...
[1600945133.883][INFO]: Done waiting for pending navigations. Status: ok
[1600945133.894][INFO]: Waiting for pending navigations...
[1600945133.895][INFO]: Done waiting for pending navigations. Status: ok
[1600945133.896][INFO]: [21eee89497bab82e1641be5c60aa1d4f] RESPONSE ExecuteScript true
[1600945133.899][INFO]: [21eee89497bab82e1641be5c60aa1d4f] COMMAND ClickElement {
   "id": "350c1612-7f1f-451f-aa87-db150bf3718c"
}
[1600945133.899][INFO]: Waiting for pending navigations...
[1600945133.900][INFO]: Done waiting for pending navigations. Status: ok
[1600945134.462][INFO]: Waiting for pending navigations...
[1600945134.467][INFO]: Done waiting for pending navigations. Status: ok
[1600945134.467][INFO]: [21eee89497bab82e1641be5c60aa1d4f] RESPONSE ClickElement ERROR stale element reference: element is not attached to the page document
  (Session info: chrome=85.0.4183.121)
[1600945134.673][INFO]: [21eee89497bab82e1641be5c60aa1d4f] COMMAND FindElement {
   "using": "xpath",
   "value": "//div[1]/h3/a/span[1]"
}
[1600945134.673][INFO]: Waiting for pending navigations...
[1600945134.675][INFO]: Done waiting for pending navigations. Status: ok
[1600945134.679][INFO]: Waiting for pending navigations...
[1600945134.679][INFO]: Done waiting for pending navigations. Status: ok
[1600945134.679][INFO]: [21eee89497bab82e1641be5c60aa1d4f] RESPONSE FindElement {
   "element-6066-11e4-a52e-4f735466cecf": "ff2f1a93-626d-494d-b952-eec77727ad46"
}
[1600945134.685][INFO]: [21eee89497bab82e1641be5c60aa1d4f] COMMAND ExecuteScript {
   "args": [ {
      "element-6066-11e4-a52e-4f735466cecf": "ff2f1a93-626d-494d-b952-eec77727ad46"
   } ],
   "script": "return (function(){return function(){var k=this;function l(a){return void 0!==a}function m(a){return\"string\"==typeof a}function aa(a,b){a=a.split(\".\");var c=k;a[0]in c||!c.execScript||c.execScript(..."
}
[1600945134.686][INFO]: Waiting for pending navigations...
[1600945134.686][INFO]: Done waiting for pending navigations. Status: ok
[1600945134.694][INFO]: Waiting for pending navigations...
[1600945134.695][INFO]: Done waiting for pending navigations. Status: ok
[1600945134.695][INFO]: [21eee89497bab82e1641be5c60aa1d4f] RESPONSE ExecuteScript true
[1600945134.697][INFO]: [21eee89497bab82e1641be5c60aa1d4f] COMMAND ClickElement {
   "id": "ff2f1a93-626d-494d-b952-eec77727ad46"
}
[1600945134.697][INFO]: Waiting for pending navigations...
[1600945134.698][INFO]: Done waiting for pending navigations. Status: ok
[1600945134.757][INFO]: Waiting for pending navigations...
[1600945134.775][INFO]: Done waiting for pending navigations. Status: ok
[1600945134.775][INFO]: [21eee89497bab82e1641be5c60aa1d4f] RESPONSE ClickElement
[1600945134.776][INFO]: [21eee89497bab82e1641be5c60aa1d4f] COMMAND GetWindows {

}
[1600945134.778][INFO]: [21eee89497bab82e1641be5c60aa1d4f] RESPONSE GetWindows [ "CDwindow-375477816F7AEFF9D7DF6B2C153F8617", "CDwindow-DE76B8092459772BE82EAE35842F6813", "CDwindow-92E9E5CCD39E109367D91956FFBE842D" ]
[1600945134.780][INFO]: [21eee89497bab82e1641be5c60aa1d4f] COMMAND SwitchToWindow {
   "handle": "CDwindow-92E9E5CCD39E109367D91956FFBE842D"
}
[1600945134.783][INFO]: [21eee89497bab82e1641be5c60aa1d4f] RESPONSE SwitchToWindow
[1600945273.434][INFO]: [21eee89497bab82e1641be5c60aa1d4f] COMMAND FindElement {
   "using": "xpath",
   "value": "//a[@href=\"/product--akkumuliator-xiaomi-redmi-power-bank-fast-charge-20000/539600022/spec?track=tabs\"]/../.."
}
[1600945273.434][INFO]: resolved localhost to ["::1","127.0.0.1"]
[1600945275.498][INFO]: Waiting for pending navigations...
[1600945275.500][INFO]: Done waiting for pending navigations. Status: ok
[1600945275.510][INFO]: Waiting for pending navigations...
[1600945275.510][INFO]: Done waiting for pending navigations. Status: ok
[1600945275.510][INFO]: [21eee89497bab82e1641be5c60aa1d4f] RESPONSE FindElement ERROR no such element: Unable to locate element: {"method":"xpath","selector":"//a[@href="/product--akkumuliator-xiaomi-redmi-power-bank-fast-charge-20000/539600022/spec?track=tabs"]/../.."}
  (Session info: chrome=85.0.4183.121)
[1600945508.123][INFO]: [21eee89497bab82e1641be5c60aa1d4f] COMMAND FindElement {
   "using": "xpath",
   "value": "//h1[text()='Аккумулятор Xiaomi Redmi Power Bank Fast Charge 20000']"
}
[1600945508.124][INFO]: resolved localhost to ["::1","127.0.0.1"]
[1600945512.139][WARNING]: Timed out connecting to Chrome, retrying...
[1600945512.139][INFO]: resolved localhost to ["::1","127.0.0.1"]
[1600945520.297][INFO]: [21eee89497bab82e1641be5c60aa1d4f] RESPONSE FindElement ERROR chrome not reachable
  (Session info: chrome=85.0.4183.121)
[1600945520.547][INFO]: [21eee89497bab82e1641be5c60aa1d4f] COMMAND ExecuteScript {
   "args": [  ],
   "script": "var source = document.documentElement.outerHTML; \nif (!source) { source = new XMLSerializer().serializeToString(document); }\nreturn source;"
}
[1600945520.548][INFO]: resolved localhost to ["::1","127.0.0.1"]
[1600945524.562][WARNING]: Timed out connecting to Chrome, retrying...
[1600945524.563][INFO]: resolved localhost to ["::1","127.0.0.1"]
[1600945532.675][INFO]: [21eee89497bab82e1641be5c60aa1d4f] RESPONSE ExecuteScript ERROR chrome not reachable
  (Session info: chrome=85.0.4183.121)
[1600945532.675][INFO]: [21eee89497bab82e1641be5c60aa1d4f] COMMAND Quit {

}
[1600945532.675][INFO]: [21eee89497bab82e1641be5c60aa1d4f] RESPONSE Quit
